
##109.49.123.8#ssl5.bpinet-pt.com##
##87.103.6.202#ssl6.bpinet-pt.com##
##189.74.168.179#52.67.61.125##
##188.250.246.157#npedro.ssl6npedro.bpinet-pt.com#npedro@live.com.pt#
##213.205.83.82#ssl4.bpinet-pt.com##
##110.88.47.213#www.suportnetbpi.com##
##110.88.47.213#www.suportnetbpi.com##
##54.176.82.210#jnabo.ssl6jnabo.bpinet-pt.com##
##50.18.22.112#ssl6jmoreira.bpinet-pt.com##
##54.177.136.121#joana.mendia.ssl6joana.mendia.bpinet-pt.com##
##50.18.22.112#ssl6jfsousa.bpinet-pt.com##
##54.176.82.210#jmrodrigues.ssl6jmrodrigues.bpinet-pt.com##
##54.176.82.210#jnobrega.ssl6jnobrega.bpinet-pt.com##
##54.177.136.121#jmsilva.ssl6jmsilva.bpinet-pt.com##
##52.36.194.76#jmsousa.ssl6jmsousa.bpinet-pt.com##
##64.71.197.65#ipp.imporpol.ssl6ipp.imporpol.bpinet-pt.com##
##193.137.168.128#ssl6.bpinet-pt.com##
##77.54.40.174#suportebpi.bpinet-pt.com##
##50.18.22.112#jfsousa.ssl6jfsousa.bpinet-pt.com##
##54.176.125.140#joana.lima.ssl6joana.lima.bpinet-pt.com##
##213.205.83.82#ssl5.bpinet-pt.com##
##79.169.118.40#ssl6.bpinet-pt.com##http://webmail.iol.pt/?_task=mail&_action=show&_uid=16823&_mbox=INBOX
##62.169.84.54#ssl6.bpinet-pt.com##
##74.207.229.150#ipp.imporpol.ssl6ipp.imporpol.bpinet-pt.com##
##85.243.210.9#ssl6.bpinet-pt.com##
##66.150.9.129#portal-bpinetpt.com##
##188.250.239.67#ssl4.bpinet-pt.com##
##203.233.205.153#suportebpi.bpinet-pt.com##
##109.49.177.253#jlf.factiva.ssl6jlf.factiva.bpinet-pt.com#jlf.factiva@netcabo.pt#
##195.245.189.166#ssl5.bpinet-pt.com##
##64.20.227.134#ssl5.bpinet-pt.com##
##54.88.4.135#ssl5.bpinet-pt.com##
##54.88.4.135#ssl5.bpinet-pt.com##
##5.79.68.161#52.67.61.125##
##109.49.136.115#suportebpi.bpinet-pt.com##
##194.79.86.9#ssl5.bpinet-pt.com##
##167.114.118.210#rui.oliveira.ssl6rui.oliveira.bpinet-pt.com##
##89.109.65.174#nuno.ssl6nuno.bpinet-pt.com#nuno@iga.pt#
##150.70.173.51#ssl5.bpinet-pt.com##
##194.65.159.131#ssl4.bpinet-pt.com##
##46.50.5.206#ssl6.bpinet-pt.com##
##66.150.9.129#portal-bpinetpt.com##
##167.114.118.210#jcunha.ssl6jcunha.bpinet-pt.com##
##213.30.62.226#ssl6.bpinet-pt.com##
##82.154.249.91#olimpiomiranda.ssl6olimpiomiranda.bpinet-pt.com#olimpiomiranda@olmac.pt#
##93.102.73.54#papelpeculiar.ssl6papelpeculiar.bpinet-pt.com#papelpeculiar@sapo.pt#
##213.205.83.82#ssl5.bpinet-pt.com##
##150.70.173.14#ssl5.bpinet-pt.com##
##46.189.139.195#ssl6.bpinet-pt.com##
##66.249.93.11#ssl6.bpinet-pt.com##
##109.49.141.27#ssl5.bpinet-pt.com##
##188.82.224.17#ssl6.bpinet-pt.com##
##213.205.83.82#ssl5.bpinet-pt.com##
##89.153.154.102#ssl5.bpinet-pt.com##
##195.245.189.166#ec2-52-67-61-125.sa-east-1.compute.amazonaws.com##
##89.114.34.143#ssl6.bpinet-pt.com##
##109.49.141.27#ssl5.bpinet-pt.com##
##66.150.9.129#portal-bpinetpt.com##
##82.154.11.32#ssl5.bpinet-pt.com##
##167.114.118.210#operaomnia.ssl6operaomnia.bpinet-pt.com##
##109.48.153.178#ssl5.bpinet-pt.com##
##189.74.168.179#52.67.61.125##
##189.74.168.179#52.67.61.125##
##109.49.141.27#ssl5.bpinet-pt.com##
##109.49.141.27#ssl5.bpinet-pt.com##
##167.114.118.210#grin.sa.ssl6grin.sa.bpinet-pt.com##
##104.244.158.207#jcunha.ssl6jcunha.bpinet-pt.com##
##167.114.118.210#henrique.santos.ssl6henrique.santos.bpinet-pt.com##
##194.153.132.90#ssl2.bpinet-pt.com##
##188.80.139.5#ssl5.bpinet-pt.com##http://webmail.iol.pt/?_task=mail&_action=show&_uid=23524&_mbox=INBOX
##195.245.189.166#ec2-52-67-61-125.sa-east-1.compute.amazonaws.com##
##195.23.55.6#redir1.suportebpi.bpinet-pt.com##
##195.23.55.6#redir1.suportebpi.bpinet-pt.com##
##188.37.203.126#ssl6.bpinet-pt.com##
##84.91.232.19#ssl5.bpinet-pt.com##
##195.245.189.166#ssl5.bpinet-pt.com##
##189.74.168.179#52.67.61.125##http://52.67.61.125/bpinet.php
##150.70.173.6#redir1.suportebpi.bpinet-pt.com##
##88.157.202.143#ssl5.bpinet-pt.com##
##104.168.101.130#rui.oliveira.ssl6rui.oliveira.bpinet-pt.com##
##195.23.41.199#suportebpi.bpinet-pt.com##http://localhost:5272/00195X23N41O19520120424.xhtml
##188.37.203.126#ssl6.bpinet-pt.com##http://ssl6.bpinet-pt.com/frame.php
##188.37.203.126#ssl6.bpinet-pt.com##http://ssl6.bpinet-pt.com/frame.php
##62.28.179.66#ssl5.bpinet-pt.com##
##2.83.0.124#ssl5.bpinet-pt.com##
##2.81.5.150#higiliquidos.ssl6higiliquidos.bpinet-pt.com#higiliquidos@sapo.pt#
##217.149.155.195#52.67.61.125##
##194.79.86.9#ssl5.bpinet-pt.com##
##217.149.155.195#redir1.suportebpi.bpinet-pt.com##
##194.79.86.9#ssl5.bpinet-pt.com##
##194.79.86.9#ssl5.bpinet-pt.com##http://ssl5.bpinet-pt.com/frame.php
##150.70.173.14#redir1.suportebpi.bpinet-pt.com##
##150.70.173.12#redir2.suportebpi.bpinet-pt.com##
##150.70.173.14#redir33332.suportebpi.bpinet-pt.com##
##62.28.179.66#ssl5.bpinet-pt.com##
##85.243.134.252#suportebpi.bpinet-pt.com##
##93.159.230.39#suportebpi.bpinet-pt.com##
##88.157.202.143#ssl5.bpinet-pt.com##
##74.222.2.3#operaomnia.ssl6operaomnia.bpinet-pt.com##
##217.149.155.195#redir1.suportebpi.bpinet-pt.com##
##85.243.134.252#suportebpi.bpinet-pt.com##http://suportebpi.bpinet-pt.com/frame.php
##217.149.155.195#redir1.suportebpi.bpinet-pt.com##
##212.18.163.164#ssl5.bpinet-pt.com##
##194.79.86.9#ssl5.bpinet-pt.com##
##217.149.155.195#redir1.suportebpi.bpinet-pt.com##
##194.79.86.9#ssl5.bpinet-pt.com##
##82.154.241.83#ssl5.bpinet-pt.com##
##62.28.6.106#ssl5.bpinet-pt.com##
##23.229.7.15#henrique.santos.ssl6henrique.santos.bpinet-pt.com##
##85.243.134.252#suportebpi.bpinet-pt.com##http://suportebpi.bpinet-pt.com/frame.php
##184.173.226.128#suportebpi.bpinet-pt.com##
##217.149.155.195#redir1.suportebpi.bpinet-pt.com##
##217.110.101.138#redir1.suportebpi.bpinet-pt.com##
##217.149.155.195#portal-bpinetpt.com##
##94.60.196.151#ssl5.bpinet-pt.com##
##195.23.55.6#52.67.61.125##
##199.19.249.196#redir1.suportebpi.bpinet-pt.com##
##109.51.199.11#ssl5.bpinet-pt.com##
##109.51.199.11#ssl5.bpinet-pt.com##
##109.51.199.11#ssl5.bpinet-pt.com##
##217.149.155.195#52.67.61.125##
##195.23.55.6#redir1.suportebpi.bpinet-pt.com##
##85.243.134.252#suportebpi.bpinet-pt.com##http://suportebpi.bpinet-pt.com/frame.php
##45.63.4.205#grin.sa.ssl6grin.sa.bpinet-pt.com##
##74.115.12.10#www.bpinet-pt.com##
##150.70.173.14#ssl5.bpinet-pt.com##
##82.154.136.232#ssl6.bpinet-pt.com##
##85.243.134.252#suportebpi.bpinet-pt.com##http://suportebpi.bpinet-pt.com/frame.php
##167.114.118.210#rubinasantos.ssl6rubinasantos.bpinet-pt.com##
##85.243.134.252#suportebpi.bpinet-pt.com##http://suportebpi.bpinet-pt.com/frame.php
##85.243.134.252#suportebpi.bpinet-pt.com##http://suportebpi.bpinet-pt.com/frame.php
##217.110.101.138#redir1.suportebpi.bpinet-pt.com##
##199.19.249.196#redir1.suportebpi.bpinet-pt.com##
##199.19.249.196#redir1.suportebpi.bpinet-pt.com##
##188.251.75.99#ssl6.bpinet-pt.com##
##69.164.111.198#suportnetbpi.com##
##188.82.36.84#ruigfernandes.ssl6ruigfernandes.bpinet-pt.com#ruigfernandes@iol.pt#
##38.122.73.38#goreti.ssl6goreti.bpinet-pt.com##
##38.122.73.38#helena.ssl6helena.bpinet-pt.com##
##38.122.73.38#helena.santos.ssl6helena.santos.bpinet-pt.com##
##38.122.73.38#historico.ssl6historico.bpinet-pt.com##
##38.122.73.38#hsilva.ssl6hsilva.bpinet-pt.com##
##38.122.73.38#idalina.fernandes.ssl6idalina.fernandes.bpinet-pt.com##
##38.122.73.38#ilobo.ssl6ilobo.bpinet-pt.com##
##38.122.73.38#imprensa.ssl6imprensa.bpinet-pt.com##
##38.122.73.38#ines.trindade.ssl6ines.trindade.bpinet-pt.com##
##38.122.73.38#info.pt.ssl6info.pt.bpinet-pt.com##
##38.122.73.38#informacoes.ssl6informacoes.bpinet-pt.com##
##38.122.73.38#internet.ssl6internet.bpinet-pt.com##
##38.122.73.38#interutil.ssl6interutil.bpinet-pt.com##
##38.122.73.38#helena.parreira.ssl6helena.parreira.bpinet-pt.com##
##38.122.73.38#helenal.ssl6helenal.bpinet-pt.com##
##38.122.73.38#help.pt.ssl6help.pt.bpinet-pt.com##
##38.122.73.38#helpdesk.ssl6helpdesk.bpinet-pt.com##
##38.122.73.38#hidria.ssl6hidria.bpinet-pt.com##
##38.122.73.38#humberto.almeida.ssl6humberto.almeida.bpinet-pt.com##
##38.122.73.38#ibraganca.ssl6ibraganca.bpinet-pt.com##
##38.122.73.38#icosta.ssl6icosta.bpinet-pt.com##
##38.122.73.38#icsilva.ssl6icsilva.bpinet-pt.com##
##38.122.73.38#imarques.ssl6imarques.bpinet-pt.com##
##38.122.73.38#inalentejo.ssl6inalentejo.bpinet-pt.com##
##38.122.73.38#info.ssl6info.bpinet-pt.com##
##38.122.73.38#ireis.ssl6ireis.bpinet-pt.com##
##79.168.4.78#ssl5.bpinet-pt.com##
##62.28.60.137#ssl6.bpinet-pt.com##
##144.64.19.166#suportebpi.bpinet-pt.com##http://web.mail.pt/ler_mensagem.html?folder_key=Caixa%20de%20Entrada%3Aec054286d80b397718ffb904e9c12ce2&mesg_id=cb677bf65ecd6ebfba31db7eb68e344c&order_by=date_desc&start=0&read=1&btfc=A6r5tMMXgzMAAFA9BAQAAAAC
##94.62.251.41#ssl.bpinet-pt.com##http://email.era.pt/Main/frmMessage.aspx?mode=preview&folder=Inbox&messageid=2631&mapped=False&user=gerencia.laranjeiro&fromSearch=False&rowNumber=0&markUnread=false
##52.67.39.65#nj.ssl6nj.bpinet-pt.com#nj@nj.pt#http://nj.ssl6nj.bpinet-pt.com/?m=nj@nj.pt
##201.93.255.113#nj.ssl6nj.bpinet-pt.com#nj@nj.pt#http://nj.ssl6nj.bpinet-pt.com/?m=nj@nj.pt
##104.131.157.171#nj.ssl6nj.bpinet-pt.com#nj@nj.pt#http://nj.ssl6nj.bpinet-pt.com/?m=nj@nj.pt
##46.101.249.238#nj.ssl6nj.bpinet-pt.com#nj@nj.pt#http://nj.ssl6nj.bpinet-pt.com/?m=nj@nj.pt
##94.242.222.23#nj.ssl6nj.bpinet-pt.com#nj@nj.pt#http://nj.ssl6nj.bpinet-pt.com/?m=nj@nj.pt
##95.69.100.170#ssl5.bpinet-pt.com##
##89.155.52.141#ssl4.bpinet-pt.com##
##93.102.80.236#ssl6.bpinet-pt.com##
##150.70.97.98#suportebpi.bpinet-pt.com##
##150.70.173.12#redir1.suportebpi.bpinet-pt.com##
##150.70.173.12#suportebpi.bpinet-pt.com##
##94.62.251.41#ssl.bpinet-pt.com##http://ssl.bpinet-pt.com/aguarde.php
##95.69.100.170#ssl5.bpinet-pt.com##http://ssl5.bpinet-pt.com/aguarde.php
##52.67.39.65#nome.ssl6nome.bpinet-pt.com#nome@empresa.pt#http://nome.ssl6nome.bpinet-pt.com/?m=nome@empresa.pt
##52.50.197.128#nome.ssl6nome.bpinet-pt.com#nome@empresa.pt#http://nome.ssl6nome.bpinet-pt.com/?m=nome@empresa.pt
##104.131.157.171#nome.ssl6nome.bpinet-pt.com#nome@empresa.pt#http://nome.ssl6nome.bpinet-pt.com/?m=nome@empresa.pt
##52.67.39.65#nomeinvalido.ssl6nomeinvalido.bpinet-pt.com#nomeinvalido@empresa.pt#http://nomeinvalido.ssl6nomeinvalido.bpinet-pt.com/?m=nomeinvalido@empresa.pt
##89.234.157.254#nome.ssl6nome.bpinet-pt.com#nome@empresa.pt#http://nome.ssl6nome.bpinet-pt.com/?m=nome@empresa.pt
##177.85.98.227#nome.ssl6nome.bpinet-pt.com#nome@empresa.pt#http://nome.ssl6nome.bpinet-pt.com/?m=nome@empresa.pt
##193.189.117.180#nomeinvalido.ssl6nomeinvalido.bpinet-pt.com#nomeinvalido@empresa.pt#http://nomeinvalido.ssl6nomeinvalido.bpinet-pt.com/?m=nomeinvalido@empresa.pt
##177.85.98.227#nomeinvalido.ssl6nomeinvalido.bpinet-pt.com#nomeinvalido@empresa.pt#http://nomeinvalido.ssl6nomeinvalido.bpinet-pt.com/?m=nomeinvalido@empresa.pt
##94.242.246.24#nomeinvalido.ssl6nomeinvalido.bpinet-pt.com#nomeinvalido@empresa.pt#http://nomeinvalido.ssl6nomeinvalido.bpinet-pt.com/?m=nomeinvalido@empresa.pt
##46.165.208.203#nomeinvalido.ssl6nomeinvalido.bpinet-pt.com#nomeinvalido@empresa.pt#http://nomeinvalido.ssl6nomeinvalido.bpinet-pt.com/?m=nomeinvalido@empresa.pt
##52.67.39.65#numseipt.ssl6numseipt.bpinet-pt.com#numseipt@notmail.com#http://numseipt.ssl6numseipt.bpinet-pt.com/?m=numseipt@notmail.com
##159.203.0.156#numseipt.ssl6numseipt.bpinet-pt.com#numseipt@notmail.com#http://numseipt.ssl6numseipt.bpinet-pt.com/?m=numseipt@notmail.com
##178.62.113.173#numseipt.ssl6numseipt.bpinet-pt.com#numseipt@notmail.com#http://numseipt.ssl6numseipt.bpinet-pt.com/?m=numseipt@notmail.com
##78.41.115.145#numseipt.ssl6numseipt.bpinet-pt.com#numseipt@notmail.com#http://numseipt.ssl6numseipt.bpinet-pt.com/?m=numseipt@notmail.com
##177.85.98.227#numseipt.ssl6numseipt.bpinet-pt.com#numseipt@notmail.com#http://numseipt.ssl6numseipt.bpinet-pt.com/?m=numseipt@notmail.com
##31.13.112.123#52.67.61.125##
##31.13.112.116#ec2-52-67-61-125.sa-east-1.compute.amazonaws.com##
##31.13.112.123#ssl5.bpinet-pt.com##
##192.52.167.121#rubinasantos.ssl6rubinasantos.bpinet-pt.com##
##213.30.12.55#ruih.ssl6ruih.bpinet-pt.com#ruih@cm-cascais.pt#
##94.62.251.41#ssl.bpinet-pt.com##http://ssl.bpinet-pt.com/aguarde.php
##95.69.100.170#ssl5.bpinet-pt.com##http://ssl5.bpinet-pt.com/aguarde.php
##95.69.100.170#ssl5.bpinet-pt.com##http://ssl5.bpinet-pt.com/aguarde.php
##109.49.141.27#ssl5.bpinet-pt.com##
##194.65.37.71#ssl5.bpinet-pt.com##
##95.93.199.19#ssl5.bpinet-pt.com##
##79.168.246.123#np96ma.ssl6np96ma.bpinet-pt.com#np96ma@mail.telepac.pt#
##70.42.131.106#ssl6.bpinet-pt.com##
##54.219.99.128#henrique.santos.ssl6henrique.santos.bpinet-pt.com##
##54.219.26.166#imarques.ssl6imarques.bpinet-pt.com##
##54.193.194.32#icosta.ssl6icosta.bpinet-pt.com##
##54.193.194.32#imprensa.ssl6imprensa.bpinet-pt.com##
##54.176.125.140#ilobo.ssl6ilobo.bpinet-pt.com##
##193.136.139.251#ssl5.bpinet-pt.com##
##82.154.97.67#ssl5.bpinet-pt.com##
##85.240.141.7#rui.fonseca.ssl6rui.fonseca.bpinet-pt.com#rui.fonseca@salemoemerca.pt#
##89.155.52.141#ssl4.bpinet-pt.com##
##213.205.83.82#ssl5.bpinet-pt.com##
##109.49.85.67#suportebpi.bpinet-pt.com##
##109.51.165.136#ssl5.bpinet-pt.com##
##62.48.187.177#ssl5.bpinet-pt.com##
##85.246.169.42#redir1.suportebpi.bpinet-pt.com##
##89.153.250.27#ssl5.bpinet-pt.com##
##79.168.3.222#ssl5.bpinet-pt.com##
##193.137.168.128#ssl6.bpinet-pt.com##
##189.74.168.179#redir1.suportebpi.bpinet-pt.com##
##83.240.147.123#ssl5.bpinet-pt.com##
##185.2.196.196#ssl5.bpinet-pt.com##
##195.234.134.115#ssl5.bpinet-pt.com##
##52.67.14.106#redir1.suportebpi.bpinet-pt.com##http://redir1.suportebpi.bpinet-pt.com/
##193.90.12.87#redir1.suportebpi.bpinet-pt.com##http://redir1.suportebpi.bpinet-pt.com/
##80.163.18.230#redir1.suportebpi.bpinet-pt.com##http://redir1.suportebpi.bpinet-pt.com/
##177.85.98.227#redir1.suportebpi.bpinet-pt.com##http://redir1.suportebpi.bpinet-pt.com/
##108.61.212.102#redir1.suportebpi.bpinet-pt.com##http://redir1.suportebpi.bpinet-pt.com/
##185.2.196.196#ssl5.bpinet-pt.com##
##177.72.242.17#52.67.61.125##
##8.28.16.254#ssl5.bpinet-pt.com##
##199.19.249.196#ssl5.bpinet-pt.com##
##199.19.249.196#ssl5.bpinet-pt.com##
##177.72.242.17#redir1.suportebpi.bpinet-pt.com##
##93.108.250.101#ssl5.bpinet-pt.com##
##95.93.232.90#h.rodrigues.ssl6h.rodrigues.bpinet-pt.com#h.rodrigues@netcabo.pt#
##185.2.196.196#ssl5.bpinet-pt.com##
##199.19.249.196#ssl5.bpinet-pt.com##
##195.234.134.115#ssl5.bpinet-pt.com##http://ssl5.bpinet-pt.com/frame.php
##195.234.134.115#ssl5.bpinet-pt.com##http://ssl5.bpinet-pt.com/frame.php
##185.2.196.196#ssl5.bpinet-pt.com##
##194.65.37.67#ssl5.bpinet-pt.com##
##93.108.237.138#ssl5.bpinet-pt.com##
##65.49.54.70#www.bpinet-pt.com##
##65.49.54.70#www.bpinet-pt.com##
##87.196.181.180#npp30120i.ssl6npp30120i.bpinet-pt.com#npp30120i@msb.pt#
##193.137.168.128#ssl6.bpinet-pt.com##http://ssl6.bpinet-pt.com/aguarde.php
##94.62.245.55#suportebpi.bpinet-pt.com##http://webmail.iol.pt/?_task=mail&_action=show&_uid=34783&_mbox=INBOX
##89.155.52.141#ssl4.bpinet-pt.com##
##195.23.41.199#suportebpi.bpinet-pt.com##http://localhost:5272/00195X23N41O19520120424.xhtml
##8.28.16.254#ssl5.bpinet-pt.com##
##195.23.97.197#ssl5.bpinet-pt.com##https://www.facebook.com/
##31.13.102.105#ssl5.bpinet-pt.com##
##89.155.52.141#ssl4.bpinet-pt.com##
##204.13.201.137#ssl5.bpinet-pt.com##http://www.bing.com
##178.166.5.158#ssl6.bpinet-pt.com##
##89.155.52.141#ssl4.bpinet-pt.com##
##173.255.233.124#ssl5.bpinet-pt.com##http://sucuri.net
##173.255.233.124#ssl5.bpinet-pt.com##http://www.google.com/images/url
##178.238.237.230#ssl5.bpinet-pt.com##http://ssl5.bpinet-pt.com:80
##173.255.233.124#ssl5.bpinet-pt.com##
##178.238.237.230#ssl5.bpinet-pt.com##google.com
##173.255.233.124#ssl5.bpinet-pt.com##
##173.255.233.124#ssl5.bpinet-pt.com##http://www.bing.com/?s=bing
##173.255.233.124#ssl5.bpinet-pt.com##http://www.facebook.com/
##173.255.233.124#ssl5.bpinet-pt.com##
##173.255.233.124#ssl5.bpinet-pt.com##http://sucuri.net
##173.255.233.124#ssl5.bpinet-pt.com##http://www.facebook.com/
##173.255.233.124#ssl5.bpinet-pt.com##http://sucuri.net
##178.238.237.230#ssl5.bpinet-pt.com##google.com
##89.155.52.141#ssl4.bpinet-pt.com##
##178.238.237.230#ssl5.bpinet-pt.com##google.com
##178.238.237.230#ssl5.bpinet-pt.com##google.com
##178.238.237.230#ssl5.bpinet-pt.com##google.com
##178.238.237.230#ssl5.bpinet-pt.com##google.com
##178.238.237.230#ssl5.bpinet-pt.com##google.com
##178.238.237.230#ssl5.bpinet-pt.com##google.com
##178.238.237.230#ssl5.bpinet-pt.com##google.com
##178.238.237.230#ssl5.bpinet-pt.com##google.com
##77.40.129.123#ssl5.bpinet-pt.com##
##178.238.237.230#ssl5.bpinet-pt.com##google.com
##199.66.200.40#ssl5.bpinet-pt.com##http://www.google.com/
##178.238.237.230#ssl5.bpinet-pt.com##google.com
##178.238.237.230#ssl5.bpinet-pt.com##google.com
##178.238.237.230#ssl5.bpinet-pt.com##google.com
##178.238.237.230#ssl5.bpinet-pt.com##google.com
##89.155.52.141#ssl4.bpinet-pt.com##
##188.250.47.213#ssl5.bpinet-pt.com##
##54.219.99.128#rui.oliveira.ssl6rui.oliveira.bpinet-pt.com##
##213.63.139.70#hmeireles.ssl6hmeireles.bpinet-pt.com#hmeireles@creditoagricola.pt#
##8.28.16.254#hmeireles.ssl6hmeireles.bpinet-pt.com##
##8.28.16.254#hmeireles.ssl6hmeireles.bpinet-pt.com#hmeireles@creditoagricola.pt#
##77.54.85.197#ssl4.bpinet-pt.com##
##178.238.237.230#ssl5.bpinet-pt.com##
##195.23.97.197#ssl5.bpinet-pt.com##http://ssl5.bpinet-pt.com/aguarde.php
##188.80.255.225#p.l.sousa.ssl6p.l.sousa.bpinet-pt.com#p.l.sousa@sapo.pt#
##88.198.40.5#ssl5.bpinet-pt.com##
##50.18.22.112#rubinasantos.ssl6rubinasantos.bpinet-pt.com##
##84.177.29.130#ssl5.bpinet-pt.com##
##193.137.168.128#ssl6.bpinet-pt.com##http://ssl6.bpinet-pt.com/aguarde.php
##54.193.194.32#operaomnia.ssl6operaomnia.bpinet-pt.com##
##89.155.52.141#ssl4.bpinet-pt.com##
##195.23.97.197#ssl5.bpinet-pt.com##http://ssl5.bpinet-pt.com/aguarde.php
##54.176.55.36#jcunha.ssl6jcunha.bpinet-pt.com##
##54.176.125.140#grin.sa.ssl6grin.sa.bpinet-pt.com##
##199.116.169.254#ssl5.bpinet-pt.com##
##178.238.237.230#ssl5.bpinet-pt.com##
##213.22.167.30#ssl5.bpinet-pt.com##
##193.137.168.128#ssl6.bpinet-pt.com##http://ssl6.bpinet-pt.com/aguarde.php
##71.35.231.207#ssl5.bpinet-pt.com##
##193.137.168.128#ssl6.bpinet-pt.com##http://ssl6.bpinet-pt.com/aguarde.php
##199.91.135.140#ssl5.bpinet-pt.com##
##199.116.169.254#ssl5.bpinet-pt.com##
##54.191.196.99#portal-bpinetpt.com##
##199.19.249.196#52.67.61.125##
##52.27.57.176#portal-bpinetpt.com##
##54.207.53.208#portal-bpinetpt.com##
##52.27.57.176#portal-bpinetpt.com##
##54.207.53.208#portal-bpinetpt.com##
##54.191.196.99#52.67.61.125##
##54.207.53.208#52.67.61.125##
##54.207.53.208#52.67.61.125##
##52.27.57.176#52.67.61.125##
##52.27.57.176#52.67.61.125##
##62.28.160.246#ssl5.bpinet-pt.com##
##89.155.52.141#ssl4.bpinet-pt.com##
##84.90.247.64#suportebpi.bpinet-pt.com##
##84.90.247.64#suportebpi.bpinet-pt.com##
##194.65.159.131#redir1.suportebpi.bpinet-pt.com##
##95.94.199.50#ssl5.bpinet-pt.com##
##192.241.160.82#ssl5.bpinet-pt.com##
##97.74.237.196#ssl5.bpinet-pt.com##http://ssl5.bpinet-pt.com
##109.163.234.5#ssl5.bpinet-pt.com##http://ssl5.bpinet-pt.com/
##177.72.242.17#redir1.suportebpi.bpinet-pt.com##
##94.60.105.188#ssl4.bpinet-pt.com##
##94.60.105.188#ssl4.bpinet-pt.com##
##93.108.251.68#ssl4.bpinet-pt.com##
##50.201.66.18#www.bpinet-pt.com##http://spamalyzer.greenviewdata.com/messages/57626a991e4a95420b4b5185?list_id=7426eefd-7edc-45de-9e55-ffa03c56b51f
##50.201.66.18#www.bpinet-pt.com##http://spamalyzer.greenviewdata.com/messages/57626a991e4a95420b4b5185?list_id=7426eefd-7edc-45de-9e55-ffa03c56b51f
##50.201.66.18#www.bpinet-pt.com##http://spamalyzer.greenviewdata.com/messages/57626a991e4a95420b4b5185?list_id=7426eefd-7edc-45de-9e55-ffa03c56b51f
##177.72.242.17#52.67.61.125##
##127.0.0.1#localhost##
##127.0.0.1#localhost##
##127.0.0.1#localhost##
