URL: 52.67.61.222/web.php

#   1  |  2  |  3  |  4  |  5  |  6  |  7  |  8  |  9  |

----

URL: 52.67.61.222/web.php/abc123/

#   1  |  2  |  3  |  4  |  5  |  6  |  7  |  8  |  9  |

----

URL: 52.67.61.222/web.php/

#   1  |  2  |  3  |  4  |  5  |  6  |  7  |  8  |  9  |

----

